-------------------------------------------------------------------------------
Test set: ru.penzgtu1.MainTest
-------------------------------------------------------------------------------
Tests run: 2, Failures: 0, Errors: 0, Skipped: 0, Time elapsed: 0.038 s - in ru.penzgtu1.MainTest
